ISS608-VAA - Hands-on Exercise 9
…
In this step, you will import GAStech_email_node.csv and GAStech_email_edges-v2.csv into RStudio environment by using read_csv() of readr package.

code block

GAStech_nodes <- read_csv("data/GAStech_email_node.csv")
GAStech_edges <- read_csv("data/GAStech_email_edge-v2.csv")

2.2.2 Examining data

code block

GAStech_nodes

# A tibble: 54 × 4
      id label               Department     Title                               
   <dbl> <chr>               <chr>          <chr>                               
 1     1 Mat.Bramar          Administration Assistant to CEO                    
 2     2 Anda.Ribera         Administration Assistant to CFO                    
 3     3 Rachel.Pantanal     Administration Assistant to CIO                    
 4     4 Linda.Lagos         Administration Assistant to COO                    
 5     5 Ruscella.Mies.Haber Administration Assistant to Engineering Group Mana…
 6     6 Carla.Forluniau     Administration Assistant to IT Group Manager       
 7     7 Cornelia.Lais       Administration Assistant to Security Group Manager 
 8    44 Kanon.Herrero       Security       Badging Office                      
 9    45 Varja.Lagos         Security       Badging Office                      
10    46 Stenig.Fusil        Security       Building Control                    
# ℹ 44 more rows

code block

GAStech_edges

# A tibble: 9,063 × 8
   source target SentDate SentTime Subject   MainSubject sourceLabel targetLabel
    <dbl>  <dbl> <chr>    <time>   <chr>     <chr>       <chr>       <chr>      
 1     43     41 6/1/2014 08:39    GT-Seism… Work relat… Sven.Flecha Isak.Baza  
 2     43     40 6/1/2014 08:39    GT-Seism… Work relat… Sven.Flecha Lucas.Alca…
 3     44     51 6/1/2014 08:58    Inspecti… Work relat… Kanon.Herr… Felix.Resu…
 4     44     52 6/1/2014 08:58    Inspecti… Work relat… Kanon.Herr… Hideki.Coc…
 5     44     53 6/1/2014 08:58    Inspecti… Work relat… Kanon.Herr… Inga.Ferro 
 6     44     45 6/1/2014 08:58    Inspecti… Work relat… Kanon.Herr… Varja.Lagos
 7     44     44 6/1/2014 08:58    Inspecti… Work relat… Kanon.Herr… Kanon.Herr…
 8     44     46 6/1/2014 08:58    Inspecti… Work relat… Kanon.Herr… Stenig.Fus…
 9     44     48 6/1/2014 08:58    Inspecti… Work relat… Kanon.Herr… Hennie.Osv…
10     44     49 6/1/2014 08:58    Inspecti… Work relat… Kanon.Herr… Isia.Vann  
# ℹ 9,053 more rows
…
