ISS608-VAA - Hands-on Exercise 4b
…
This section is taken from Hands-on_Ex02 as we are using the same data set.

The data set, Exam_data.csv, contains the Year-end examination grades of a cohort of primary 3 students from a local school, and is uploaded as exam_data.

2.1.2.1 Importing exam_data

In the code chunk below, read_csv() of readr package is used to import Exam_data.csv data file into R and save it as an tibble data frame called exam_data.

code block

exam <- read_csv("data/Exam_data.csv")

exam

# A tibble: 322 × 7
   ID         CLASS GENDER RACE    ENGLISH MATHS SCIENCE
   <chr>      <chr> <chr>  <chr>     <dbl> <dbl>   <dbl>
 1 Student321 3I    Male   Malay        21     9      15
 2 Student305 3I    Female Malay        24    22      16
 3 Student289 3H    Male   Chinese      26    16      16
 4 Student227 3F    Male   Chinese      27    77      31
 5 Student318 3I    Male   Malay        27    11      25
 6 Student306 3I    Female Malay        31    16      16
 7 Student313 3I    Male   Chinese      31    21      25
 8 Student316 3I    Male   Malay        31    18      27
 9 Student312 3I    Male   Malay        33    19      15
10 Student297 3H    Male   Indian       34    49      37
# ℹ 312 more rows
…
3.1.2 Data Set

The dataset ToyotaCorolla.xls contains data on used cars on sale during the late summer of 2004 in the Netherlands. It has 1436 records containing attributes includingPrice, Age, Kilometers, Horsepower, and other specifications.

3.1.2.1 Importing exam_data

In the code chunk below, read_csv() of readr package is used to import Exam_data.csv data file into R and save it as an tibble data frame called exam_data.

code block

car_resale <- read_xls("data/ToyotaCorolla.xls", 
                       "data")
car_resale

# A tibble: 1,436 × 38
      Id Model    Price Age_08_04 Mfg_Month Mfg_Year     KM Quarterly_Tax Weight
   <dbl> <chr>    <dbl>     <dbl>     <dbl>    <dbl>  <dbl>         <dbl>  <dbl>
 1    81 TOYOTA … 18950        25         8     2002  20019           100   1180
 2     1 TOYOTA … 13500        23        10     2002  46986           210   1165
 3     2 TOYOTA … 13750        23        10     2002  72937           210   1165
 4     3  TOYOTA… 13950        24         9     2002  41711           210   1165
 5     4 TOYOTA … 14950        26         7     2002  48000           210   1165
 6     5 TOYOTA … 13750        30         3     2002  38500           210   1170
 7     6 TOYOTA … 12950        32         1     2002  61000           210   1170
 8     7  TOYOTA… 16900        27         6     2002  94612           210   1245
 9     8 TOYOTA … 18600        30         3     2002  75889           210   1245
10    44 TOYOTA … 16950        27         6     2002 110404           234   1255
# ℹ 1,426 more rows
# ℹ 29 more variables: Guarantee_Period <dbl>, HP_Bin <chr>, CC_bin <chr>,
#   Doors <dbl>, Gears <dbl>, Cylinders <dbl>, Fuel_Type <chr>, Color <chr>,
#   Met_Color <dbl>, Automatic <dbl>, Mfr_Guarantee <dbl>,
#   BOVAG_Guarantee <dbl>, ABS <dbl>, Airbag_1 <dbl>, Airbag_2 <dbl>,
#   Airco <dbl>, Automatic_airco <dbl>, Boardcomputer <dbl>, CD_Player <dbl>,
#   Central_Lock <dbl>, Powered_Windows <dbl>, Power_Steering <dbl>, …
…
